{
    "version": "1.0.0-*",
    "buildOptions": {
        "debugType": "portable",
        "emitEntryPoint": true
    },
    "configurations": {
        "Debug":{
            "buildOptions": {
                "define": [
                    "DEBUG"
                ]
            }
        },
        "Release":{
            "buildOptions": {
                "optimize": true,
                "define": [
                    "RELEASE"
                ]
            }
        }
    },
    "runtimeOptions": {
        "configProperties": {
            "System.GC.Concurrent": true,
            "System.GC.Server": true
        }
    },
    "dependencies": {
        "Discord.Net": "1.0.0-beta-00420",
        "Discord.Net.Commands": "1.0.0-beta-00420",
        "Discord.Addons.AspNet-DI": "1.0.0-*",
        "System.Net.WebSockets.Client": "4.0.1-*",
        "Microsoft.Extensions.Logging": "1.0.0",
        "Microsoft.Extensions.Logging.Console": "1.0.0",
        "Microsoft.Extensions.Logging.Debug": "1.0.0",
        "Microsoft.Extensions.Configuration": "1.0.0",
        "Microsoft.Extensions.Configuration.Json": "1.0.0",
        "Microsoft.Extensions.DependencyInjection": "1.0.0",
        "Pomelo.EntityFrameworkCore.MySQL": "1.0.0",
        "Microsoft.EntityFrameworkCore.Design": "1.0.0-preview2-final"
    },
    "frameworks": {
        "netcoreapp1.0": {
            "dependencies": {
                "Microsoft.NETCore.App": {
                    "type": "platform",
                    "version": "1.0.0"
                }
            },
            "imports": "dnxcore50"
        }
    },
    "tools":{
        "Microsoft.EntityFrameworkCore.Tools": "1.0.0-preview2-final"
    }
}
